W. Joel Schneider
…
If this conversion process seems like a lot of work, lavaan’s cor2cov function is a quicker alternative:

Sigma <- lavaan::cor2cov(R = R, sds = s)

Generate Multivariate Data

Now we are ready to generate our multivariate normal data. Let’s generate 1000 cases. The rmvnorm function outputs a matrix, so we usually need to convert it to a tibble.

d <- mvtnorm::rmvnorm(n = 1000, mean = m, sigma = Sigma) %>% 
  as_tibble()

d

# A tibble: 1,000 × 3
       x     y     z
   <dbl> <dbl> <dbl>
 1  38.0  61.5  58.8
 2  49.6  80.1  80.9
 3  43.8  73.3  70.2
 4  55.2  66.1  79.4
 5  47.9  67.2  81.3
 6  49.4  84.9  76.1
 7  52.0  77.6  81.6
 8  46.8  82.8  90.1
 9  48.1  73.9  78.8
10  40.0  58.9  53.5
# ℹ 990 more rows
…
Recall that

\[\begin{bmatrix}e_{0j}\\e_{1j}\end{bmatrix}\sim\mathcal{N}\left(\begin{bmatrix}0\\ 0 \end{bmatrix}\begin{matrix} \\ ,\end{matrix}\begin{bmatrix}\tau_{00}&\\ \tau_{10}&\tau_{11}\end{bmatrix}\right)\]

Create level-2 error terms.

u <- rmvnorm(k, 
             mean = c(e_0j = 0, e_1j = 0), 
             sigma = tau_2) %>% 
  as_tibble()

u

# A tibble: 100 × 2
       e_0j    e_1j
      <dbl>   <dbl>
 1  25.0    -0.855 
 2 -27.3     0.539 
 3   0.194   0.120 
 4  57.3    -1.15  
 5 -46.0     0.0632
 6  -0.0923  0.210 
 7 -61.5     0.264 
 8 -17.4     0.625 
 9  52.0    -0.587 
10   8.15    0.0914
# ℹ 90 more rows
…
C_j = rnorm(k)

Compute all level-2 data in one sequence of steps.

The bind_cols function binds the columns of two data.frames (or tibbles).

d2 <- tibble(cluster_id = 1:k,
       cluster_size = rpois(k, 28) %>% pmax(1),
       C_j = rnorm(k)) %>% 
  bind_cols(u) %>% 
  mutate(b_0j = b_00 + b_01 * C_j + e_0j,
         b_1j = b_10 + b_11 * C_j + e_1j)
d2

# A tibble: 100 × 7
   cluster_id cluster_size    C_j     e_0j    e_1j  b_0j  b_1j
        <int>        <dbl>  <dbl>    <dbl>   <dbl> <dbl> <dbl>
 1          1           25  0.226  25.0    -0.855   530.  28.2
 2          2           26 -0.831 -27.3     0.539   456.  33.9
 3          3           45 -0.354   0.194   0.120   493.  31.5
 4          4           21 -0.351  57.3    -1.15    550.  30.3
 5          5           29 -0.301 -46.0     0.0632  448.  31.3
 6          6           31 -1.32   -0.0923  0.210   474.  35.5
 7          7           19 -0.760 -61.5     0.264   423.  33.3
 8          8           16  1.36  -17.4     0.625   510.  25.2
 9          9           33 -0.401  52.0    -0.587   544.  31.0
10         10           31 -0.237   8.15    0.0914  503.  31.0
# ℹ 90 more rows

Step 3: Simulate Level-1 Data

Convert Level-2 Data to Level-1 Data

The uncount function makes this step easy. It duplicates a row the number of times specified in the weights variable—the cluster size in this case.

d1 <- d2 %>% 
  uncount(cluster_size)

d1

# A tibble: 2,832 × 6
   cluster_id   C_j  e_0j   e_1j  b_0j  b_1j
        <int> <dbl> <dbl>  <dbl> <dbl> <dbl>
 1          1 0.226  25.0 -0.855  530.  28.2
 2          1 0.226  25.0 -0.855  530.  28.2
 3          1 0.226  25.0 -0.855  530.  28.2
 4          1 0.226  25.0 -0.855  530.  28.2
 5          1 0.226  25.0 -0.855  530.  28.2
 6          1 0.226  25.0 -0.855  530.  28.2
 7          1 0.226  25.0 -0.855  530.  28.2
 8          1 0.226  25.0 -0.855  530.  28.2
 9          1 0.226  25.0 -0.855  530.  28.2
10          1 0.226  25.0 -0.855  530.  28.2
# ℹ 2,822 more rows

Compute the level-1 error term and the level-1 covariates.

The rnorm function needs to know how many rows there are. Because the number of rows was generated randomly, we do not usually know how many rows there will be. Fortunately, we can use the nrow function, which tells us how many rows are in a data frame. The dot in the phrase nrow(.) the data.frame that was piped into the mutate function.

d1 <- d1 %>% 
  mutate(V_ij = rnorm(nrow(.)),
         e = rnorm(nrow(.), sd = sqrt(tau_1)))
d1

# A tibble: 2,832 × 8
   cluster_id   C_j  e_0j   e_1j  b_0j  b_1j    V_ij     e
        <int> <dbl> <dbl>  <dbl> <dbl> <dbl>   <dbl> <dbl>
 1          1 0.226  25.0 -0.855  530.  28.2 -0.0953  2.06
 2          1 0.226  25.0 -0.855  530.  28.2 -0.0774  4.52
 3          1 0.226  25.0 -0.855  530.  28.2 -0.0243  6.34
 4          1 0.226  25.0 -0.855  530.  28.2 -0.120   2.93
 5          1 0.226  25.0 -0.855  530.  28.2 -0.675   4.16
 6          1 0.226  25.0 -0.855  530.  28.2  0.0480 -8.11
 7          1 0.226  25.0 -0.855  530.  28.2 -0.669   6.06
 8          1 0.226  25.0 -0.855  530.  28.2 -1.20   12.8 
 9          1 0.226  25.0 -0.855  530.  28.2 -1.55   -5.43
10          1 0.226  25.0 -0.855  530.  28.2  1.26   -1.82
# ℹ 2,822 more rows

Simulate the outcome variable

If we have written out the level-1 equation, this step is easy.

\[Reading_{ij}=b_{0j} + b_{1j}V_{ij}+e_{ij}\]

d1 <- d1 %>% 
  mutate(Reading = b_0j + b_1j * V_ij + e)
d1

# A tibble: 2,832 × 9
   cluster_id   C_j  e_0j   e_1j  b_0j  b_1j    V_ij     e Reading
        <int> <dbl> <dbl>  <dbl> <dbl> <dbl>   <dbl> <dbl>   <dbl>
 1          1 0.226  25.0 -0.855  530.  28.2 -0.0953  2.06    529.
 2          1 0.226  25.0 -0.855  530.  28.2 -0.0774  4.52    532.
 3          1 0.226  25.0 -0.855  530.  28.2 -0.0243  6.34    535.
 4          1 0.226  25.0 -0.855  530.  28.2 -0.120   2.93    529.
 5          1 0.226  25.0 -0.855  530.  28.2 -0.675   4.16    515.
 6          1 0.226  25.0 -0.855  530.  28.2  0.0480 -8.11    523.
 7          1 0.226  25.0 -0.855  530.  28.2 -0.669   6.06    517.
 8          1 0.226  25.0 -0.855  530.  28.2 -1.20   12.8     508.
 9          1 0.226  25.0 -0.855  530.  28.2 -1.55   -5.43    480.
10          1 0.226  25.0 -0.855  530.  28.2  1.26   -1.82    563.
# ℹ 2,822 more rows
…
