…
The `select` function allows for selecting as many variables from the data as you wish:



::: {.cell}

```{.r .cell-code}
d %>% 
  select(Attachment, Anxiety_Physiological)
```

::: {.cell-output .cell-output-stdout}

```
# A tibble: 300 × 2
   Attachment Anxiety_Physiological
   <fct>                      <dbl>
 1 Secure                      59.8
 2 Ambivalent                  63.3
 3 Avoidant                    72.2
 4 Secure                      41.6
 5 Ambivalent                  77.8
 6 Ambivalent                  51.6
 7 Secure                      57.7
 8 Ambivalent                  69.6
 9 Avoidant                    67.7
10 Avoidant                    71.7
# ℹ 290 more rows
```
…
Use the `-` sign to exclude a variable:



::: {.cell}

```{.r .cell-code}
d %>% 
  select(-Attachment)
```

::: {.cell-output .cell-output-stdout}

```
# A tibble: 300 × 2
   Anxiety_Physiological Anxiety_Questionnaire
                   <dbl>                 <dbl>
 1                  59.8                  57.9
 2                  63.3                  63.4
 3                  72.2                  51.5
 4                  41.6                  38.6
 5                  77.8                  82.5
 6                  51.6                  50.8
 7                  57.7                  56.1
 8                  69.6                  75.9
 9                  67.7                  49.7
10                  71.7                  52.3
# ℹ 290 more rows
```
…
Select variables that contain "Anxiety"



::: {.cell}

```{.r .cell-code}
d %>% 
  select(contains("Anxiety"))
```

::: {.cell-output .cell-output-stdout}

```
# A tibble: 300 × 2
   Anxiety_Physiological Anxiety_Questionnaire
                   <dbl>                 <dbl>
 1                  59.8                  57.9
 2                  63.3                  63.4
 3                  72.2                  51.5
 4                  41.6                  38.6
 5                  77.8                  82.5
 6                  51.6                  50.8
 7                  57.7                  56.1
 8                  69.6                  75.9
 9                  67.7                  49.7
10                  71.7                  52.3
# ℹ 290 more rows
```
…
R's delightful flexibility makes for a bewildering array of options! Here just a few of the many ways we could select the `Attachment` variable from data.frame `d`:



::: {.cell}

```{.r .cell-code}
# By name
d[, "Attachment"] 
```

::: {.cell-output .cell-output-stdout}

```
# A tibble: 300 × 1
   Attachment
   <fct>     
 1 Secure    
 2 Ambivalent
 3 Avoidant  
 4 Secure    
 5 Ambivalent
 6 Ambivalent
 7 Secure    
 8 Ambivalent
 9 Avoidant  
10 Avoidant  
# ℹ 290 more rows
```


:::

```{.r .cell-code}
# By position
d[, 1] 
```

::: {.cell-output .cell-output-stdout}

```
# A tibble: 300 × 1
   Attachment
   <fct>     
 1 Secure    
 2 Ambivalent
 3 Avoidant  
 4 Secure    
 5 Ambivalent
 6 Ambivalent
 7 Secure    
 8 Ambivalent
 9 Avoidant  
10 Avoidant  
# ℹ 290 more rows
```


:::

```{.r .cell-code}
# Selecting always returns a data.frame or tibble
select(d, Attachment)
```

::: {.cell-output .cell-output-stdout}

```
# A tibble: 300 × 1
   Attachment
   <fct>     
 1 Secure    
 2 Ambivalent
 3 Avoidant  
 4 Secure    
 5 Ambivalent
 6 Ambivalent
 7 Secure    
 8 Ambivalent
 9 Avoidant  
10 Avoidant  
# ℹ 290 more rows
```
…
