W. Joel Schneider
…
The pipe operator inserts the output of the previous command into the next function. You can think of it as meaning “and then…”

The code above can be interpreted as a series of steps: 1. Start with the data in dAND THEN 2. Select the variables Anxiety_Questionnaire and Anxiety_Physiological AND THEN 3. Create a correlation matrix.

It makes it convenient to link a series of commands in a readable format.

You can select as many variables as you wish, separated by commas. You do not need to put variable names in quotes.

The select function allows for selecting as many variables from the data as you wish:

d %>% 
  select(Attachment, Anxiety_Physiological)

# A tibble: 300 × 2
   Attachment Anxiety_Physiological
   <fct>                      <dbl>
 1 Secure                      59.8
 2 Ambivalent                  63.3
 3 Avoidant                    72.2
 4 Secure                      41.6
 5 Ambivalent                  77.8
 6 Ambivalent                  51.6
 7 Secure                      57.7
 8 Ambivalent                  69.6
 9 Avoidant                    67.7
10 Avoidant                    71.7
# ℹ 290 more rows

Use the - sign to exclude a variable:

d %>% 
  select(-Attachment)

# A tibble: 300 × 2
   Anxiety_Physiological Anxiety_Questionnaire
                   <dbl>                 <dbl>
 1                  59.8                  57.9
 2                  63.3                  63.4
 3                  72.2                  51.5
 4                  41.6                  38.6
 5                  77.8                  82.5
 6                  51.6                  50.8
 7                  57.7                  56.1
 8                  69.6                  75.9
 9                  67.7                  49.7
10                  71.7                  52.3
# ℹ 290 more rows

Select variables that contain “Anxiety”

d %>% 
  select(contains("Anxiety"))

# A tibble: 300 × 2
   Anxiety_Physiological Anxiety_Questionnaire
                   <dbl>                 <dbl>
 1                  59.8                  57.9
 2                  63.3                  63.4
 3                  72.2                  51.5
 4                  41.6                  38.6
 5                  77.8                  82.5
 6                  51.6                  50.8
 7                  57.7                  56.1
 8                  69.6                  75.9
 9                  67.7                  49.7
10                  71.7                  52.3
# ℹ 290 more rows

Alternative Selection Methods

R’s delightful flexibility makes for a bewildering array of options! Here just a few of the many ways we could select the Attachment variable from data.frame d:

# By name
d[, "Attachment"] 

# A tibble: 300 × 1
   Attachment
   <fct>     
 1 Secure    
 2 Ambivalent
 3 Avoidant  
 4 Secure    
 5 Ambivalent
 6 Ambivalent
 7 Secure    
 8 Ambivalent
 9 Avoidant  
10 Avoidant  
# ℹ 290 more rows

# By position
d[, 1] 

# A tibble: 300 × 1
   Attachment
   <fct>     
 1 Secure    
 2 Ambivalent
 3 Avoidant  
 4 Secure    
 5 Ambivalent
 6 Ambivalent
 7 Secure    
 8 Ambivalent
 9 Avoidant  
10 Avoidant  
# ℹ 290 more rows

# Selecting always returns a data.frame or tibble
select(d, Attachment)

# A tibble: 300 × 1
   Attachment
   <fct>     
 1 Secure    
 2 Ambivalent
 3 Avoidant  
 4 Secure    
 5 Ambivalent
 6 Ambivalent
 7 Secure    
 8 Ambivalent
 9 Avoidant  
10 Avoidant  
# ℹ 290 more rows
…
