W. Joel Schneider
…
# Simulate level-2 data and coefficients
d_level2 <- tibble(person_id = factor(1:n_person),
                   n_occasions = n_occasions,
               working_memory = rnorm(n_person)) %>% 
  bind_cols(e_2) %>% 
  mutate(b_0i = b_00 + b_01 * working_memory + e_0i,
         b_1i = b_10 + b_11 * working_memory + e_1i,
         b_2i = b_20 + b_21 * working_memory + e_2i)

d_level2

# A tibble: 2,000 × 9
   person_id n_occasions working_memory   e_0i    e_1i    e_2i  b_0i  b_1i  b_2i
   <fct>           <dbl>          <dbl>  <dbl>   <dbl>   <dbl> <dbl> <dbl> <dbl>
 1 1                   6        -1.22    41.7  -0.469  -0.639   89.5  43.4  8.46
 2 2                   6         1.20     4.37  3.83    1.50    76.3  59.8  8.43
 3 3                   6        -0.956   65.6   4.25    2.10   116.   49.5 11.0 
 4 4                   6        -0.746  -21.3  -1.69   -2.01    31.2  44.6  6.67
 5 5                   6        -1.64    -2.79  2.00    1.90    40.9  43.8 11.4 
 6 6                   6        -0.0452   2.88 -1.25    1.67    62.4  48.5  9.72
 7 7                   6        -0.933   83.4   0.951  -1.36   134.   46.3  7.48
 8 8                   6        -0.291   62.8   0.0654  0.341  120.   48.6  8.60
 9 9                   6         1.36    23.1  -0.727   0.0299  96.7  56.1  6.81
10 10                  6         0.311   35.2   1.65   -1.12    98.4  53.2  6.60
# ℹ 1,990 more rows
…
d_level1 <- d_level2 %>%
  uncount(n_occasions) %>%
  mutate(Grade = row_number() - 1, .by = person_id) %>%
  mutate(
    reading_decoding = 6 + 2 * Grade + .5 * working_memory + rnorm(n()),
    e_ti = rnorm(n(), mean = 0, sd = sqrt(tau_1)),
    reading_comprehension = b_0i + b_1i * Grade + b_2i * reading_decoding + e_ti
  ) %>%
  arrange(Grade, reading_comprehension) %>%
  mutate(person_id = fct_inorder(person_id)) %>%
  arrange(person_id, Grade)

d_level1

# A tibble: 12,000 × 12
   person_id working_memory  e_0i  e_1i   e_2i   b_0i  b_1i  b_2i Grade
   <fct>              <dbl> <dbl> <dbl>  <dbl>  <dbl> <dbl> <dbl> <dbl>
 1 12                 0.557 -137. -1.92 -1.55   -71.9  50.9  5.95     0
 2 12                 0.557 -137. -1.92 -1.55   -71.9  50.9  5.95     1
 3 12                 0.557 -137. -1.92 -1.55   -71.9  50.9  5.95     2
 4 12                 0.557 -137. -1.92 -1.55   -71.9  50.9  5.95     3
 5 12                 0.557 -137. -1.92 -1.55   -71.9  50.9  5.95     4
 6 12                 0.557 -137. -1.92 -1.55   -71.9  50.9  5.95     5
 7 918               -1.87  -151.  2.37 -0.284 -109.   43.0  9.40     0
 8 918               -1.87  -151.  2.37 -0.284 -109.   43.0  9.40     1
 9 918               -1.87  -151.  2.37 -0.284 -109.   43.0  9.40     2
10 918               -1.87  -151.  2.37 -0.284 -109.   43.0  9.40     3
# ℹ 11,990 more rows
# ℹ 3 more variables: reading_decoding <dbl>, e_ti <dbl>,
#   reading_comprehension <dbl>
…
