W. Joel Schneider
…
Figure 11: Path Diagram Latent Growth Model

Restructure from Long to Wide Data

SEM analyses usually need wide data with each participant’s data on 1 row. We learned how to do so in a previous tutorial.

Use the pivot_wider function to restructure your data so that the data set d is restructured to look like this:

# A tibble: 200 × 8
   person_id intervention voc_0 voc_1 voc_2 voc_3 voc_4 voc_5
       <dbl>        <dbl> <dbl> <dbl> <dbl> <dbl> <dbl> <dbl>
 1         1            0  31.3  38.6  51.2  54.9  50.6  55.3
 2         2            0  94.1 100.  114.  119.  123.  125. 
 3         3            0  57.0  66.5  73.6  80.9  88.2  93.1
 4         4            0  60.3  70.2  78.9  78.9  78.4  79.0
 5         5            0  32.6  39.1  47.3  48.1  51.1  48.3
 6         6            1  88.6 105.  120.  141.  160.  169. 
 7         7            0  65.6  72.4  76.8  83.3  86.3  87.0
 8         8            0  35.9  41.7  57.4  64.8  64.1  73.1
 9         9            1  71.7  78.9  97.4 105.  121.  126. 
10        10            1  75.9  85.0 106.  119.  132.  142. 
# ℹ 190 more rows
…
